<svg xmlns="http://www.w3.org/2000/svg" width="23.732" height="34.158" viewBox="0 0 23.732 34.158">
  <g id="Group_706" data-name="Group 706" transform="translate(1.157 1.157)">
    <path id="Path_1795" data-name="Path 1795" d="M3513.178-2395.134h-10.709l2.536,26.56h16.345l2.536-26.56Z" transform="translate(-3502.469 2400.418)" fill="rgba(0,0,0,0)" stroke="#000" stroke-linecap="round" stroke-linejoin="round" stroke-width="2.314"/>
    <path id="Path_1796" data-name="Path 1796" d="M3514.466-2372.153v0Z" transform="translate(-3503.757 2399.929)" fill="rgba(0,0,0,0)" stroke="#000" stroke-linecap="round" stroke-linejoin="round" stroke-width="2.314"/>
    <line id="Line_239" data-name="Line 239" x1="1.057" y1="18.423" transform="translate(5.354 9.353)" fill="none" stroke="#000" stroke-linecap="round" stroke-linejoin="round" stroke-width="2.314"/>
    <line id="Line_240" data-name="Line 240" y1="18.423" x2="1.057" transform="translate(15.134 9.353)" fill="none" stroke="#000" stroke-linecap="round" stroke-linejoin="round" stroke-width="2.314"/>
    <rect id="Rectangle_383" data-name="Rectangle 383" width="21.418" height="0.017" transform="translate(0 2.008)" fill="rgba(0,0,0,0)" stroke="#000" stroke-linecap="round" stroke-linejoin="round" stroke-width="2.314"/>
    <rect id="Rectangle_384" data-name="Rectangle 384" width="4.861" height="0.44" transform="translate(8.279 0)" fill="rgba(0,0,0,0)" stroke="#000" stroke-linecap="round" stroke-linejoin="round" stroke-width="2.314"/>
  </g>
</svg>
